{
    "success": true,
    "data": [
        {
            "created": 1603100580000,
            "updated": 1603102622000,
            "id": 8079,
            "orderCode": "ILG008079",
            "orderStatus": "BOX_BOOKING_AT_HUB_FOR_COLLECTION",
            "orderType": "BOX_BOOKING",
            "goodsCategory": "MIXED",
            "paymentType": "MOMO",
            "totalFee": 0,
            "codAmount": 0,
            "cashAdvancedAmount": 0,
            "discount": 100000,
            "offerCode": "full100",
            "preferredPickupTime": null,
            "remark": null,
            "route": "HQ1-03/ iLogic SmartBox- VCC Đồng Khởi",
            "pickupHubCode": "HQ1-03",
            "pickupLocation": null,
            "pickupInfo": {
                "id": 659,
                "name": "Phuong share",
                "phoneNumber": "0932168077",
                "email": "",
                "code": ""
            },
            "dropOffHubCode": "HQ1-03",
            "dropOffLocation": null,
            "dropOffInfo": {
                "id": 659,
                "name": "Phuong share",
                "phoneNumber": "0932168077",
                "email": "",
                "code": ""
            },
            "mileInfoId": null,
            "mileUpdatedDate": null,
            "assignee": "",
            "assigneeRole": null,
            "driverEarning": 0,
            "provider": null
        },
        {
            "created": 1603100149000,
            "updated": 1603100543000,
            "id": 8078,
            "orderCode": "ILG008078",
            "orderStatus": "BOX_BOOKING_DELIVERED",
            "orderType": "EXTERNAL_LEL",
            "goodsCategory": "FASHION",
            "paymentType": "B2B",
            "totalFee": 0,
            "codAmount": 0,
            "cashAdvancedAmount": 0,
            "discount": 0,
            "offerCode": null,
            "preferredPickupTime": null,
            "remark": null,
            "route": "HQ1-03/ iLogic SmartBox- VCC Đồng Khởi",
            "pickupHubCode": "HQ1-03",
            "pickupLocation": null,
            "pickupInfo": {
                "id": 679,
                "name": "iLogic LEL",
                "phoneNumber": "",
                "email": "",
                "code": ""
            },
            "dropOffHubCode": "HQ1-03",
            "dropOffLocation": null,
            "dropOffInfo": {
                "id": 873,
                "name": "Nobita",
                "phoneNumber": "0932168077",
                "email": "phuong.truong@ilogic.vn",
                "code": ""
            },
            "mileInfoId": null,
            "mileUpdatedDate": null,
            "assignee": "",
            "assigneeRole": null,
            "driverEarning": 0,
            "provider": null
        },
        {
            "created": 1603096702000,
            "updated": 1603100004000,
            "id": 8077,
            "orderCode": "ILG008077",
            "orderStatus": "BOX_BOOKING_AT_HUB_FOR_COLLECTION",
            "orderType": "EXTERNAL_LEL",
            "goodsCategory": "FASHION",
            "paymentType": "B2B",
            "totalFee": 0,
            "codAmount": 0,
            "cashAdvancedAmount": 0,
            "discount": 0,
            "offerCode": null,
            "preferredPickupTime": null,
            "remark": null,
            "route": "HQ1-03/ iLogic SmartBox- VCC Đồng Khởi",
            "pickupHubCode": "HQ1-03",
            "pickupLocation": null,
            "pickupInfo": {
                "id": 679,
                "name": "iLogic LEL",
                "phoneNumber": "",
                "email": "",
                "code": ""
            },
            "dropOffHubCode": "HQ1-03",
            "dropOffLocation": null,
            "dropOffInfo": {
                "id": 873,
                "name": "Nobita",
                "phoneNumber": "0932168077",
                "email": "phuong.truong@ilogic.vn",
                "code": ""
            },
            "mileInfoId": null,
            "mileUpdatedDate": null,
            "assignee": "",
            "assigneeRole": null,
            "driverEarning": 0,
            "provider": null
        },
        {
            "created": 1603096682000,
            "updated": 1603100046000,
            "id": 8076,
            "orderCode": "ILG008076",
            "orderStatus": "BOX_BOOKING_DELIVERED",
            "orderType": "EXTERNAL_LEL",
            "goodsCategory": "FASHION",
            "paymentType": "B2B",
            "totalFee": 0,
            "codAmount": 0,
            "cashAdvancedAmount": 0,
            "discount": 0,
            "offerCode": null,
            "preferredPickupTime": null,
            "remark": null,
            "route": "HQ1-03/ iLogic SmartBox- VCC Đồng Khởi",
            "pickupHubCode": "HQ1-03",
            "pickupLocation": null,
            "pickupInfo": {
                "id": 679,
                "name": "iLogic LEL",
                "phoneNumber": "",
                "email": "",
                "code": ""
            },
            "dropOffHubCode": "HQ1-03",
            "dropOffLocation": null,
            "dropOffInfo": {
                "id": 873,
                "name": "Nobita",
                "phoneNumber": "0932168077",
                "email": "phuong.truong@ilogic.vn",
                "code": ""
            },
            "mileInfoId": null,
            "mileUpdatedDate": null,
            "assignee": "",
            "assigneeRole": null,
            "driverEarning": 0,
            "provider": null
        },
        {
            "created": 1603096661000,
            "updated": 1603099881000,
            "id": 8075,
            "orderCode": "ILG008075",
            "orderStatus": "BOX_BOOKING_DELIVERED",
            "orderType": "EXTERNAL_LEL",
            "goodsCategory": "FASHION",
            "paymentType": "B2B",
            "totalFee": 0,
            "codAmount": 0,
            "cashAdvancedAmount": 0,
            "discount": 0,
            "offerCode": null,
            "preferredPickupTime": null,
            "remark": null,
            "route": "HQ1-03/ iLogic SmartBox- VCC Đồng Khởi",
            "pickupHubCode": "HQ1-03",
            "pickupLocation": null,
            "pickupInfo": {
                "id": 679,
                "name": "iLogic LEL",
                "phoneNumber": "",
                "email": "",
                "code": ""
            },
            "dropOffHubCode": "HQ1-03",
            "dropOffLocation": null,
            "dropOffInfo": {
                "id": 873,
                "name": "Nobita",
                "phoneNumber": "0932168077",
                "email": "phuong.truong@ilogic.vn",
                "code": ""
            },
            "mileInfoId": null,
            "mileUpdatedDate": null,
            "assignee": "",
            "assigneeRole": null,
            "driverEarning": 0,
            "provider": null
        },
        {
            "created": 1603092335000,
            "updated": 1603094078000,
            "id": 8074,
            "orderCode": "ILG008074",
            "orderStatus": "BOX_BOOKING_DELIVERED",
            "orderType": "EXTERNAL_LEL",
            "goodsCategory": "FASHION",
            "paymentType": "B2B",
            "totalFee": 0,
            "codAmount": 0,
            "cashAdvancedAmount": 0,
            "discount": 0,
            "offerCode": null,
            "preferredPickupTime": null,
            "remark": null,
            "route": "SGN004/ iLogic Box- Võ Văn Kiệt",
            "pickupHubCode": "SGN004",
            "pickupLocation": null,
            "pickupInfo": {
                "id": 679,
                "name": "iLogic LEL",
                "phoneNumber": "",
                "email": "",
                "code": ""
            },
            "dropOffHubCode": "SGN004",
            "dropOffLocation": null,
            "dropOffInfo": {
                "id": 873,
                "name": "Nobita",
                "phoneNumber": "0932168077",
                "email": "phuong.truong@ilogic.vn",
                "code": ""
            },
            "mileInfoId": null,
            "mileUpdatedDate": null,
            "assignee": "",
            "assigneeRole": null,
            "driverEarning": 0,
            "provider": null
        },
        {
            "created": 1603091963000,
            "updated": 1603092117000,
            "id": 8073,
            "orderCode": "ILG008073",
            "orderStatus": "BOX_BOOKING_DELIVERED",
            "orderType": "EXTERNAL_LEL",
            "goodsCategory": "FASHION",
            "paymentType": "B2B",
            "totalFee": 0,
            "codAmount": 0,
            "cashAdvancedAmount": 0,
            "discount": 0,
            "offerCode": null,
            "preferredPickupTime": null,
            "remark": null,
            "route": "HQ1-03/ iLogic SmartBox- VCC Đồng Khởi",
            "pickupHubCode": "HQ1-03",
            "pickupLocation": null,
            "pickupInfo": {
                "id": 679,
                "name": "iLogic LEL",
                "phoneNumber": "",
                "email": "",
                "code": ""
            },
            "dropOffHubCode": "HQ1-03",
            "dropOffLocation": null,
            "dropOffInfo": {
                "id": 873,
                "name": "Nobita",
                "phoneNumber": "0932168077",
                "email": "phuong.truong@ilogic.vn",
                "code": ""
            },
            "mileInfoId": null,
            "mileUpdatedDate": null,
            "assignee": "",
            "assigneeRole": null,
            "driverEarning": 0,
            "provider": null
        },
        {
            "created": 1603091165000,
            "updated": 1603091968000,
            "id": 8072,
            "orderCode": "ILG008072",
            "orderStatus": "BOX_BOOKING_AT_HUB_FOR_COLLECTION",
            "orderType": "EXTERNAL_LEL",
            "goodsCategory": "FASHION",
            "paymentType": "B2B",
            "totalFee": 0,
            "codAmount": 0,
            "cashAdvancedAmount": 0,
            "discount": 0,
            "offerCode": null,
            "preferredPickupTime": null,
            "remark": null,
            "route": "HQ1-03/ iLogic SmartBox- VCC Đồng Khởi",
            "pickupHubCode": "HQ1-03",
            "pickupLocation": null,
            "pickupInfo": {
                "id": 679,
                "name": "iLogic LEL",
                "phoneNumber": "",
                "email": "",
                "code": ""
            },
            "dropOffHubCode": "HQ1-03",
            "dropOffLocation": null,
            "dropOffInfo": {
                "id": 873,
                "name": "Nobita",
                "phoneNumber": "0932168077",
                "email": "phuong.truong@ilogic.vn",
                "code": ""
            },
            "mileInfoId": null,
            "mileUpdatedDate": null,
            "assignee": "",
            "assigneeRole": null,
            "driverEarning": 0,
            "provider": null
        },
        {
            "created": 1603091000000,
            "updated": 1603091848000,
            "id": 8071,
            "orderCode": "ILG008071",
            "orderStatus": "BOX_BOOKING_AT_HUB_FOR_COLLECTION",
            "orderType": "EXTERNAL_LEL",
            "goodsCategory": "FASHION",
            "paymentType": "B2B",
            "totalFee": 0,
            "codAmount": 0,
            "cashAdvancedAmount": 0,
            "discount": 0,
            "offerCode": null,
            "preferredPickupTime": null,
            "remark": null,
            "route": "HQ1-03/ iLogic SmartBox- VCC Đồng Khởi",
            "pickupHubCode": "HQ1-03",
            "pickupLocation": null,
            "pickupInfo": {
                "id": 679,
                "name": "iLogic LEL",
                "phoneNumber": "",
                "email": "",
                "code": ""
            },
            "dropOffHubCode": "HQ1-03",
            "dropOffLocation": null,
            "dropOffInfo": {
                "id": 873,
                "name": "Nobita",
                "phoneNumber": "0932168077",
                "email": "phuong.truong@ilogic.vn",
                "code": ""
            },
            "mileInfoId": null,
            "mileUpdatedDate": null,
            "assignee": "",
            "assigneeRole": null,
            "driverEarning": 0,
            "provider": null
        },
        {
            "created": 1603082911000,
            "updated": 1603090578000,
            "id": 8070,
            "orderCode": "ILG008070",
            "orderStatus": "BOX_BOOKING_DELIVERED",
            "orderType": "EXTERNAL_LEL",
            "goodsCategory": "FASHION",
            "paymentType": "B2B",
            "totalFee": 0,
            "codAmount": 0,
            "cashAdvancedAmount": 0,
            "discount": 0,
            "offerCode": null,
            "preferredPickupTime": null,
            "remark": null,
            "route": "HQ1-03/ iLogic SmartBox- VCC Đồng Khởi",
            "pickupHubCode": "HQ1-03",
            "pickupLocation": null,
            "pickupInfo": {
                "id": 679,
                "name": "iLogic LEL",
                "phoneNumber": "",
                "email": "",
                "code": ""
            },
            "dropOffHubCode": "HQ1-03",
            "dropOffLocation": null,
            "dropOffInfo": {
                "id": 873,
                "name": "Nobita",
                "phoneNumber": "0932168077",
                "email": "phuong.truong@ilogic.vn",
                "code": ""
            },
            "mileInfoId": null,
            "mileUpdatedDate": null,
            "assignee": "",
            "assigneeRole": null,
            "driverEarning": 0,
            "provider": null
        }
    ]
}
